\relax 
\providecommand\hyper@newdestlabel[2]{}
\providecommand\HyperFirstAtBeginDocument{\AtBeginDocument}
\HyperFirstAtBeginDocument{\ifx\hyper@anchor\@undefined
\global\let\oldcontentsline\contentsline
\gdef\contentsline#1#2#3#4{\oldcontentsline{#1}{#2}{#3}}
\global\let\oldnewlabel\newlabel
\gdef\newlabel#1#2{\newlabelxx{#1}#2}
\gdef\newlabelxx#1#2#3#4#5#6{\oldnewlabel{#1}{{#2}{#3}}}
\AtEndDocument{\ifx\hyper@anchor\@undefined
\let\contentsline\oldcontentsline
\let\newlabel\oldnewlabel
\fi}
\fi}
\global\let\hyper@last\relax 
\gdef\HyperFirstAtBeginDocument#1{#1}
\providecommand\HyField@AuxAddToFields[1]{}
\providecommand\HyField@AuxAddToCoFields[2]{}
\citation{Longas:2015sxk}
\@writefile{toc}{\contentsline {section}{\numberline {1}Flavor structure}{1}{section.1}}
\newlabel{eq:YukawaLagrangian}{{1}{1}{Flavor structure}{equation.1.1}{}}
\newlabel{eq:scalar_and_fermion_mixings}{{2}{1}{Flavor structure}{equation.1.2}{}}
\newlabel{eq:YukawaLagrangian_After_EWSM}{{3}{1}{Flavor structure}{equation.1.3}{}}
\bibstyle{apsrev4-1long}
\bibdata{susy}
\bibcite{Longas:2015sxk}{1}
\newlabel{eq:Width_decays}{{4}{2}{Flavor structure}{equation.1.4}{}}
\newlabel{eq:Branching_Ratios}{{5}{2}{Flavor structure}{equation.1.5}{}}
